rtl/top_tb.vcd
$date
	Sun Mar 22 06:26:59 2026
$end
$version
	Icarus Verilog
$end
$timescale
	1ps
$end
$scope module top_tb $end
$var reg 1 ! clk $end
$var reg 1 " rst $end
$var integer 32 # i [31:0] $end
$scope module DUT $end
$var wire 1 ! clk $end
$var wire 1 " rst $end
$var wire 1 $ zero_top $end
$var wire 32 % pc_sel_mux_out [31:0] $end
$var wire 32 & mux_out_write_data [31:0] $end
$var wire 32 ' instruction_top [31:0] $end
$var wire 32 ( data_mem_read_out_top [31:0] $end
$var wire 32 ) data_mem_mux_out_top [31:0] $end
$var wire 32 * branch_target_top [31:0] $end
$var wire 1 + and_out_top $end
$var wire 1 , RegWrite_top $end
$var wire 32 - RD2_top [31:0] $end
$var wire 32 . RD1_top [31:0] $end
$var wire 32 / PC_top [31:0] $end
$var wire 32 0 PC_plused_top [31:0] $end
$var wire 32 1 PC_next_mux_out [31:0] $end
$var wire 32 2 PC_addr_mux_out_top [31:0] $end
$var wire 1 3 MemtoReg_top $end
$var wire 1 4 MemWrite_top $end
$var wire 1 5 MemRead_top $end
$var wire 1 6 LUI_en_top $end
$var wire 1 7 JALr_en_top $end
$var wire 32 8 JAL_mux_out_top [31:0] $end
$var wire 1 9 JAL_en_top $end
$var wire 32 : ImmExt_top [31:0] $end
$var wire 1 ; Branch_top $end
$var wire 1 < AUIPC_en_top $end
$var wire 32 = ALU_out_top [31:0] $end
$var wire 32 > ALU_mux_out_top [31:0] $end
$var wire 4 ? ALU_ctrl_top [3:0] $end
$var wire 1 @ ALUSrc_top $end
$var wire 2 A ALUOp_top [1:0] $end
$scope module ALU $end
$var wire 4 B control_in [3:0] $end
$var wire 32 C B [31:0] $end
$var wire 32 D A [31:0] $end
$var reg 32 E ALU_out [31:0] $end
$var reg 1 $ zero $end
$upscope $end
$scope module ALU_mux $end
$var wire 1 @ sel $end
$var wire 32 F mux_out [31:0] $end
$var wire 32 G B [31:0] $end
$var wire 32 H A [31:0] $end
$upscope $end
$scope module ALUctrl $end
$var wire 3 I fun3 [2:0] $end
$var wire 1 J fun7 $end
$var wire 2 K ALUop [1:0] $end
$var reg 4 L control_out [3:0] $end
$upscope $end
$scope module BranchAdd $end
$var wire 32 M plus4_addr [31:0] $end
$var wire 32 N mux_in_addr [31:0] $end
$var wire 32 O ImmAddr [31:0] $end
$upscope $end
$scope module Imm $end
$var wire 7 P opcode [6:0] $end
$var wire 32 Q instructions [31:0] $end
$var reg 32 R ImmExt [31:0] $end
$upscope $end
$scope module PC $end
$var wire 1 ! clk $end
$var wire 1 " rst $end
$var wire 32 S PC_in [31:0] $end
$var reg 32 T PC_out [31:0] $end
$upscope $end
$scope module PC_adder $end
$var wire 32 U fromPC [31:0] $end
$var wire 32 V toPC [31:0] $end
$upscope $end
$scope module branch_mux $end
$var wire 32 W A [31:0] $end
$var wire 32 X B [31:0] $end
$var wire 1 + sel $end
$var wire 32 Y mux_out [31:0] $end
$upscope $end
$scope module ctrl_unit $end
$var wire 7 Z opcode [6:0] $end
$var reg 2 [ ALUOp [1:0] $end
$var reg 1 @ ALUSrc $end
$var reg 1 < AUIPC_en $end
$var reg 1 ; Branch $end
$var reg 1 9 JAL_en $end
$var reg 1 7 JALr_en $end
$var reg 1 6 LUI_en $end
$var reg 1 5 MemRead $end
$var reg 1 4 MemWrite $end
$var reg 1 3 MemtoReg $end
$var reg 1 , RegWrite $end
$upscope $end
$scope module data_mem_mux $end
$var wire 32 \ A [31:0] $end
$var wire 1 3 sel $end
$var wire 32 ] mux_out [31:0] $end
$var wire 32 ^ B [31:0] $end
$upscope $end
$scope module datamem_unit $end
$var wire 1 5 MemRead $end
$var wire 1 4 MemWrite $end
$var wire 32 _ address [31:0] $end
$var wire 1 ! clk $end
$var wire 1 " rst $end
$var wire 32 ` write_data [31:0] $end
$var wire 32 a read_data [31:0] $end
$var integer 32 b k [31:0] $end
$upscope $end
$scope module gate $end
$var wire 1 ; Branch $end
$var wire 1 + and_out $end
$var wire 1 $ zero $end
$upscope $end
$scope module inst_mem $end
$var wire 32 c instruction_out [31:0] $end
$var wire 32 d read_address [31:0] $end
$upscope $end
$scope module pc_sel_mux_J $end
$var wire 32 e A [31:0] $end
$var wire 32 f B [31:0] $end
$var wire 1 9 sel $end
$var wire 32 g mux_out [31:0] $end
$upscope $end
$scope module pc_sel_mux_Jr $end
$var wire 32 h A [31:0] $end
$var wire 32 i B [31:0] $end
$var wire 1 7 sel $end
$var wire 32 j mux_out [31:0] $end
$upscope $end
$scope module pc_sel_mux_U $end
$var wire 32 k B [31:0] $end
$var wire 1 < sel $end
$var wire 32 l mux_out [31:0] $end
$var wire 32 m A [31:0] $end
$upscope $end
$scope module regFile $end
$var wire 1 ! clk $end
$var wire 5 n rd [4:0] $end
$var wire 1 , reg_write $end
$var wire 5 o rs1 [4:0] $end
$var wire 5 p rs2 [4:0] $end
$var wire 1 " rst $end
$var wire 32 q write_data [31:0] $end
$var wire 32 r read_data_2 [31:0] $end
$var wire 32 s read_data_1 [31:0] $end
$var integer 32 t k [31:0] $end
$upscope $end
$scope module write_reg_mux $end
$var wire 32 u A [31:0] $end
$var wire 32 v B [31:0] $end
$var wire 1 6 sel $end
$var wire 32 w mux_out [31:0] $end
$upscope $end
$upscope $end
$upscope $end
$enddefinitions $end
$comment Show the parameter values. $end
$dumpall
$end
#0
$dumpvars
b100000 w
b11111111111111111111111111100000 v
b100000 u
b100000 t
b0 s
b0 r
b100000 q
b0 p
b10 o
b10 n
b0 m
b0 l
b0 k
b100 j
b100000 i
b100 h
b100 g
b100000 f
b100 e
b0 d
b11111110000000010000000100010011 c
b1000000 b
b0 a
b0 `
b100000 _
b0 ^
b100000 ]
b100000 \
b10 [
b10011 Z
b100 Y
b11111111111111111111111111100000 X
b100 W
b100 V
b0 U
b0 T
b100 S
b11111111111111111111111111100000 R
b11111110000000010000000100010011 Q
b10011 P
b11111111111111111111111111100000 O
b11111111111111111111111111100000 N
b0 M
b110 L
b10 K
1J
b0 I
b0 H
b11111111111111111111111111100000 G
b11111111111111111111111111100000 F
b100000 E
b0 D
b11111111111111111111111111100000 C
b110 B
b10 A
1@
b110 ?
b11111111111111111111111111100000 >
b100000 =
0<
0;
b11111111111111111111111111100000 :
09
b100 8
07
06
05
04
03
b100 2
b100 1
b100 0
b0 /
b0 .
b0 -
1,
0+
b11111111111111111111111111100000 *
b100000 )
b0 (
b11111110000000010000000100010011 '
b100000 &
b0 %
0$
b1000000 #
1"
0!
$end
#5000
b1000000 b
b100000 t
1!
#10000
0!
#15000
b100000 t
b1000000 b
1!
#20000
0!
0"
#25000
b111100 &
b111100 q
b111100 w
b111100 )
b111100 ]
b111100 u
b111100 =
b111100 E
b111100 \
b111100 _
b111100 f
b111100 i
b1000 1
b1000 S
b1000 j
b10 ?
b10 B
b10 L
0,
14
b0 A
b0 K
b0 [
b11100 >
b11100 C
b11100 F
b100000 %
b100000 D
b100000 l
b1000 8
b1000 g
b1000 h
b10 I
0J
b11100 n
b1000 p
b100011 P
b100011 Z
b11100 :
b11100 G
b11100 O
b11100 R
b11100 v
b100000 .
b100000 m
b100000 s
b1000 2
b1000 Y
b1000 e
b100000010010111000100011 '
b100000010010111000100011 Q
b100000010010111000100011 c
b1000 0
b1000 V
b1000 W
b100000 *
b100000 N
b100000 X
b100 /
b100 M
b100 T
b100 U
b100 d
b100 k
1!
#30000
0!
#35000
b1000000 &
b1000000 q
b1000000 w
b1000000 )
b1000000 ]
b1000000 u
b1000000 =
b1000000 E
b1000000 \
b1000000 _
b1000000 f
b1000000 i
b1100 1
b1100 S
b1100 j
1,
04
b10 A
b10 K
b10 [
b100000 >
b100000 C
b100000 F
b1100 8
b1100 g
b1100 h
b0 I
b1000 n
b0 p
b10011 P
b10011 Z
b100000 :
b100000 G
b100000 O
b100000 R
b100000 v
b1100 2
b1100 Y
b1100 e
b10000000010000010000010011 '
b10000000010000010000010011 Q
b10000000010000010000010011 c
b1100 0
b1100 V
b1100 W
b101000 *
b101000 N
b101000 X
b1000 /
b1000 M
b1000 T
b1000 U
b1000 d
b1000 k
1!
#40000
0!
#45000
b11 &
b11 q
b11 w
b11 )
b11 ]
b11 u
b0 %
b0 D
b0 l
b11 =
b11 E
b11 \
b11 _
b11 f
b11 i
b10000 1
b10000 S
b10000 j
b0 .
b0 m
b0 s
b11 >
b11 C
b11 F
b10000 8
b10000 g
b10000 h
b1111 n
b11 p
b0 o
b11 :
b11 G
b11 O
b11 R
b11 v
b10000 2
b10000 Y
b10000 e
b1100000000011110010011 '
b1100000000011110010011 Q
b1100000000011110010011 c
b10000 0
b10000 V
b10000 W
b1111 *
b1111 N
b1111 X
b1100 /
b1100 M
b1100 T
b1100 U
b1100 d
b1100 k
1!
#50000
0!
#55000
b101100 &
b101100 q
b101100 w
b101100 )
b101100 ]
b101100 u
b1000000 %
b1000000 D
b1000000 l
b101100 =
b101100 E
b101100 \
b101100 _
b101100 f
b101100 i
b10100 1
b10100 S
b10100 j
b11 -
b11 H
b11 `
b11 r
b1000000 .
b1000000 m
b1000000 s
0,
14
b0 A
b0 K
b0 [
b11111111111111111111111111101100 >
b11111111111111111111111111101100 C
b11111111111111111111111111101100 F
b10100 8
b10100 g
b10100 h
b10 I
1J
b1100 n
b1111 p
b1000 o
b100011 P
b100011 Z
b11111111111111111111111111101100 :
b11111111111111111111111111101100 G
b11111111111111111111111111101100 O
b11111111111111111111111111101100 R
b11111111111111111111111111101100 v
b10100 2
b10100 Y
b10100 e
b11111110111101000010011000100011 '
b11111110111101000010011000100011 Q
b11111110111101000010011000100011 c
b10100 0
b10100 V
b10100 W
b11111111111111111111111111111100 *
b11111111111111111111111111111100 N
b11111111111111111111111111111100 X
b10000 /
b10000 M
b10000 T
b10000 U
b10000 d
b10000 k
1!
#60000
0!
#65000
b111 &
b111 q
b111 w
b111 )
b111 ]
b111 u
b0 %
b0 D
b0 l
b111 =
b111 E
b111 \
b111 _
b111 f
b111 i
b11000 1
b11000 S
b11000 j
b0 -
b0 H
b0 `
b0 r
b0 .
b0 m
b0 s
1,
04
b10 A
b10 K
b10 [
b111 >
b111 C
b111 F
b11000 8
b11000 g
b11000 h
b0 I
0J
b1111 n
b111 p
b0 o
b10011 P
b10011 Z
b111 :
b111 G
b111 O
b111 R
b111 v
b11000 2
b11000 Y
b11000 e
b11100000000011110010011 '
b11100000000011110010011 Q
b11100000000011110010011 c
b11000 0
b11000 V
b11000 W
b11011 *
b11011 N
b11011 X
b10100 /
b10100 M
b10100 T
b10100 U
b10100 d
b10100 k
1!
#70000
0!
#75000
b101000 &
b101000 q
b101000 w
b101000 )
b101000 ]
b101000 u
b1000000 %
b1000000 D
b1000000 l
b101000 =
b101000 E
b101000 \
b101000 _
b101000 f
b101000 i
b11100 1
b11100 S
b11100 j
b111 -
b111 H
b111 `
b111 r
b1000000 .
b1000000 m
b1000000 s
0,
14
b0 A
b0 K
b0 [
b11111111111111111111111111101000 >
b11111111111111111111111111101000 C
b11111111111111111111111111101000 F
b11100 8
b11100 g
b11100 h
b10 I
1J
b1000 n
b1111 p
b1000 o
b100011 P
b100011 Z
b11111111111111111111111111101000 :
b11111111111111111111111111101000 G
b11111111111111111111111111101000 O
b11111111111111111111111111101000 R
b11111111111111111111111111101000 v
b11100 2
b11100 Y
b11100 e
b11111110111101000010010000100011 '
b11111110111101000010010000100011 Q
b11111110111101000010010000100011 c
b11100 0
b11100 V
b11100 W
b0 *
b0 N
b0 X
b11000 /
b11000 M
b11000 T
b11000 U
b11000 d
b11000 k
1!
#80000
0!
#85000
b11 &
b11 q
b11 w
b11 )
b11 ]
b11 u
b11 (
b11 ^
b11 a
b101100 =
b101100 E
b101100 \
b101100 _
b101100 f
b101100 i
b100000 1
b100000 S
b100000 j
b0 -
b0 H
b0 `
b0 r
13
1,
15
04
b11111111111111111111111111101100 >
b11111111111111111111111111101100 C
b11111111111111111111111111101100 F
b100000 8
b100000 g
b100000 h
b1110 n
b1100 p
b11 P
b11 Z
b11111111111111111111111111101100 :
b11111111111111111111111111101100 G
b11111111111111111111111111101100 O
b11111111111111111111111111101100 R
b11111111111111111111111111101100 v
b100000 2
b100000 Y
b100000 e
b11111110110001000010011100000011 '
b11111110110001000010011100000011 Q
b11111110110001000010011100000011 c
b100000 0
b100000 V
b100000 W
b1000 *
b1000 N
b1000 X
b11100 /
b11100 M
b11100 T
b11100 U
b11100 d
b11100 k
1!
#90000
0!
#95000
b111 &
b111 q
b111 w
b111 )
b111 ]
b111 u
b111 (
b111 ^
b111 a
b101000 =
b101000 E
b101000 \
b101000 _
b101000 f
b101000 i
b100100 1
b100100 S
b100100 j
b1000000 -
b1000000 H
b1000000 `
b1000000 r
b11111111111111111111111111101000 >
b11111111111111111111111111101000 C
b11111111111111111111111111101000 F
b100100 8
b100100 g
b100100 h
b1111 n
b1000 p
b11111111111111111111111111101000 :
b11111111111111111111111111101000 G
b11111111111111111111111111101000 O
b11111111111111111111111111101000 R
b11111111111111111111111111101000 v
b100100 2
b100100 Y
b100100 e
b11111110100001000010011110000011 '
b11111110100001000010011110000011 Q
b11111110100001000010011110000011 c
b100100 0
b100100 V
b100100 W
b1000 *
b1000 N
b1000 X
b100000 /
b100000 M
b100000 T
b100000 U
b100000 d
b100000 k
1!
#100000
0!
#105000
b1010 &
b1010 q
b1010 w
b11 %
b11 D
b11 l
b1010 )
b1010 ]
b1010 u
b0 (
b0 ^
b0 a
b1010 =
b1010 E
b1010 \
b1010 _
b1010 f
b1010 i
b101000 1
b101000 S
b101000 j
b111 -
b111 H
b111 `
b111 r
b11 .
b11 m
b11 s
0@
03
05
b10 A
b10 K
b10 [
b111 >
b111 C
b111 F
b101000 8
b101000 g
b101000 h
b0 I
0J
b1111 p
b1110 o
b110011 P
b110011 Z
b0 :
b0 G
b0 O
b0 R
b0 v
b101000 2
b101000 Y
b101000 e
b111101110000011110110011 '
b111101110000011110110011 Q
b111101110000011110110011 c
b101000 0
b101000 V
b101000 W
b100100 *
b100100 N
b100100 X
b100100 /
b100100 M
b100100 T
b100100 U
b100100 d
b100100 k
1!
#110000
0!
#115000
b100100 &
b100100 q
b100100 w
b1000000 %
b1000000 D
b1000000 l
b100100 )
b100100 ]
b100100 u
b101100 1
b101100 S
b101100 j
b1000000 .
b1000000 m
b1000000 s
b11111111111111111111111111100100 :
b11111111111111111111111111100100 G
b11111111111111111111111111100100 O
b11111111111111111111111111100100 R
b11111111111111111111111111100100 v
1@
0,
14
b0 A
b0 K
b0 [
b100100 =
b100100 E
b100100 \
b100100 _
b100100 f
b100100 i
b101100 8
b101100 g
b101100 h
b10 I
1J
b100 n
b1000 o
b100011 P
b100011 Z
b11111111111111111111111111100100 >
b11111111111111111111111111100100 C
b11111111111111111111111111100100 F
b101100 2
b101100 Y
b101100 e
b11111110111101000010001000100011 '
b11111110111101000010001000100011 Q
b11111110111101000010001000100011 c
b1010 -
b1010 H
b1010 `
b1010 r
b101100 0
b101100 V
b101100 W
b1100 *
b1100 N
b1100 X
b101000 /
b101000 M
b101000 T
b101000 U
b101000 d
b101000 k
1!
#120000
0!
#125000
b1010 &
b1010 q
b1010 w
b1010 )
b1010 ]
b1010 u
b1010 (
b1010 ^
b1010 a
b100100 =
b100100 E
b100100 \
b100100 _
b100100 f
b100100 i
b110000 1
b110000 S
b110000 j
b0 -
b0 H
b0 `
b0 r
13
1,
15
04
b11111111111111111111111111100100 >
b11111111111111111111111111100100 C
b11111111111111111111111111100100 F
b110000 8
b110000 g
b110000 h
b1111 n
b100 p
b11 P
b11 Z
b11111111111111111111111111100100 :
b11111111111111111111111111100100 G
b11111111111111111111111111100100 O
b11111111111111111111111111100100 R
b11111111111111111111111111100100 v
b110000 2
b110000 Y
b110000 e
b11111110010001000010011110000011 '
b11111110010001000010011110000011 Q
b11111110010001000010011110000011 c
b110000 0
b110000 V
b110000 W
b10000 *
b10000 N
b10000 X
b101100 /
b101100 M
b101100 T
b101100 U
b101100 d
b101100 k
1!
#130000
0!
#135000
b1010 &
b1010 q
b1010 w
b1010 %
b1010 D
b1010 l
b1010 )
b1010 ]
b1010 u
b0 (
b0 ^
b0 a
b1010 =
b1010 E
b1010 \
b1010 _
b1010 f
b1010 i
b110100 1
b110100 S
b110100 j
b1010 .
b1010 m
b1010 s
03
05
b10 A
b10 K
b10 [
b0 >
b0 C
b0 F
b110100 8
b110100 g
b110100 h
b0 I
0J
b1010 n
b0 p
b1111 o
b10011 P
b10011 Z
b0 :
b0 G
b0 O
b0 R
b0 v
b110100 2
b110100 Y
b110100 e
b1111000010100010011 '
b1111000010100010011 Q
b1111000010100010011 c
b110100 0
b110100 V
b110100 W
b110000 *
b110000 N
b110000 X
b110000 /
b110000 M
b110000 T
b110000 U
b110000 d
b110000 k
1!
#140000
0!
#145000
b0 (
b0 ^
b0 a
b0 &
b0 q
b0 w
b100000 %
b100000 D
b100000 l
b0 )
b0 ]
b0 u
b111100 =
b111100 E
b111100 \
b111100 _
b111100 f
b111100 i
b111000 1
b111000 S
b111000 j
b100000 .
b100000 m
b100000 s
13
15
b0 A
b0 K
b0 [
b11100 >
b11100 C
b11100 F
b111000 8
b111000 g
b111000 h
b10 I
b1000 n
b11100 p
b10 o
b11 P
b11 Z
b11100 :
b11100 G
b11100 O
b11100 R
b11100 v
b111000 2
b111000 Y
b111000 e
b1110000010010010000000011 '
b1110000010010010000000011 Q
b1110000010010010000000011 c
b111000 0
b111000 V
b111000 W
b1010000 *
b1010000 N
b1010000 X
b110100 /
b110100 M
b110100 T
b110100 U
b110100 d
b110100 k
1!
#150000
0!
#155000
b1000000 &
b1000000 q
b1000000 w
b1000000 )
b1000000 ]
b1000000 u
b1000000 =
b1000000 E
b1000000 \
b1000000 _
b1000000 f
b1000000 i
b111100 1
b111100 S
b111100 j
03
05
b10 A
b10 K
b10 [
b100000 >
b100000 C
b100000 F
b111100 8
b111100 g
b111100 h
b0 I
b10 n
b0 p
b10011 P
b10011 Z
b100000 :
b100000 G
b100000 O
b100000 R
b100000 v
b111100 2
b111100 Y
b111100 e
b10000000010000000100010011 '
b10000000010000000100010011 Q
b10000000010000000100010011 c
b111100 0
b111100 V
b111100 W
b1011000 *
b1011000 N
b1011000 X
b111000 /
b111000 M
b111000 T
b111000 U
b111000 d
b111000 k
1!
#160000
0!
#165000
b0 =
b0 E
b0 \
b0 _
b0 f
b0 i
b0 &
b0 q
b0 w
b0 )
b0 ]
b0 u
b0 1
b0 S
b0 j
13
17
b0 >
b0 C
b0 F
b0 %
b0 D
b0 l
b1000000 8
b1000000 g
b1000000 h
b0 n
b1 o
b1100111 P
b1100111 Z
b0 :
b0 G
b0 O
b0 R
b0 v
b0 .
b0 m
b0 s
b1000000 2
b1000000 Y
b1000000 e
b1000000001100111 '
b1000000001100111 Q
b1000000001100111 c
b1000000 0
b1000000 V
b1000000 W
b111100 *
b111100 N
b111100 X
b111100 /
b111100 M
b111100 T
b111100 U
b111100 d
b111100 k
1!
#170000
0!
#175000
b1100000 &
b1100000 q
b1100000 w
b1000000 %
b1000000 D
b1000000 l
b1100000 )
b1100000 ]
b1100000 u
b100 1
b100 S
b100 j
b1100000 =
b1100000 E
b1100000 \
b1100000 _
b1100000 f
b1100000 i
b110 ?
b110 B
b110 L
b1000000 .
b1000000 m
b1000000 s
03
07
b11111111111111111111111111100000 >
b11111111111111111111111111100000 C
b11111111111111111111111111100000 F
b100 8
b100 g
b100 h
1J
b10 n
b10 o
b10011 P
b10011 Z
b11111111111111111111111111100000 :
b11111111111111111111111111100000 G
b11111111111111111111111111100000 O
b11111111111111111111111111100000 R
b11111111111111111111111111100000 v
b100 2
b100 Y
b100 e
b11111110000000010000000100010011 '
b11111110000000010000000100010011 Q
b11111110000000010000000100010011 c
b100 0
b100 V
b100 W
b11111111111111111111111111100000 *
b11111111111111111111111111100000 N
b11111111111111111111111111100000 X
b0 /
b0 M
b0 T
b0 U
b0 d
b0 k
1!
#180000
0!
#185000
b1111100 &
b1111100 q
b1111100 w
b1111100 )
b1111100 ]
b1111100 u
b1111100 =
b1111100 E
b1111100 \
b1111100 _
b1111100 f
b1111100 i
b1000 1
b1000 S
b1000 j
b10 ?
b10 B
b10 L
0,
14
b0 A
b0 K
b0 [
b11100 >
b11100 C
b11100 F
b1100000 %
b1100000 D
b1100000 l
b1000 8
b1000 g
b1000 h
b10 I
0J
b11100 n
b1000 p
b100011 P
b100011 Z
b11100 :
b11100 G
b11100 O
b11100 R
b11100 v
b1100000 .
b1100000 m
b1100000 s
b1000 2
b1000 Y
b1000 e
b100000010010111000100011 '
b100000010010111000100011 Q
b100000010010111000100011 c
b1000 0
b1000 V
b1000 W
b100000 *
b100000 N
b100000 X
b100 /
b100 M
b100 T
b100 U
b100 d
b100 k
1!
#190000
0!
#195000
b10000000 &
b10000000 q
b10000000 w
b10000000 )
b10000000 ]
b10000000 u
b10000000 =
b10000000 E
b10000000 \
b10000000 _
b10000000 f
b10000000 i
b1100 1
b1100 S
b1100 j
1,
04
b10 A
b10 K
b10 [
b100000 >
b100000 C
b100000 F
b1100 8
b1100 g
b1100 h
b0 I
b1000 n
b0 p
b10011 P
b10011 Z
b100000 :
b100000 G
b100000 O
b100000 R
b100000 v
b1100 2
b1100 Y
b1100 e
b10000000010000010000010011 '
b10000000010000010000010011 Q
b10000000010000010000010011 c
b1100 0
b1100 V
b1100 W
b101000 *
b101000 N
b101000 X
b1000 /
b1000 M
b1000 T
b1000 U
b1000 d
b1000 k
1!
#200000
0!
#205000
b11 &
b11 q
b11 w
b11 )
b11 ]
b11 u
b0 %
b0 D
b0 l
b11 =
b11 E
b11 \
b11 _
b11 f
b11 i
b10000 1
b10000 S
b10000 j
b0 .
b0 m
b0 s
b11 >
b11 C
b11 F
b10000 8
b10000 g
b10000 h
b1111 n
b11 p
b0 o
b11 :
b11 G
b11 O
b11 R
b11 v
b10000 2
b10000 Y
b10000 e
b1100000000011110010011 '
b1100000000011110010011 Q
b1100000000011110010011 c
b10000 0
b10000 V
b10000 W
b1111 *
b1111 N
b1111 X
b1100 /
b1100 M
b1100 T
b1100 U
b1100 d
b1100 k
1!
#210000
0!
#215000
b1101100 &
b1101100 q
b1101100 w
b1101100 )
b1101100 ]
b1101100 u
b10000000 %
b10000000 D
b10000000 l
b1101100 =
b1101100 E
b1101100 \
b1101100 _
b1101100 f
b1101100 i
b10100 1
b10100 S
b10100 j
b11 -
b11 H
b11 `
b11 r
b10000000 .
b10000000 m
b10000000 s
0,
14
b0 A
b0 K
b0 [
b11111111111111111111111111101100 >
b11111111111111111111111111101100 C
b11111111111111111111111111101100 F
b10100 8
b10100 g
b10100 h
b10 I
1J
b1100 n
b1111 p
b1000 o
b100011 P
b100011 Z
b11111111111111111111111111101100 :
b11111111111111111111111111101100 G
b11111111111111111111111111101100 O
b11111111111111111111111111101100 R
b11111111111111111111111111101100 v
b10100 2
b10100 Y
b10100 e
b11111110111101000010011000100011 '
b11111110111101000010011000100011 Q
b11111110111101000010011000100011 c
b10100 0
b10100 V
b10100 W
b11111111111111111111111111111100 *
b11111111111111111111111111111100 N
b11111111111111111111111111111100 X
b10000 /
b10000 M
b10000 T
b10000 U
b10000 d
b10000 k
1!
#220000
0!
#225000
b111 &
b111 q
b111 w
b111 )
b111 ]
b111 u
b0 %
b0 D
b0 l
b111 =
b111 E
b111 \
b111 _
b111 f
b111 i
b11000 1
b11000 S
b11000 j
b0 -
b0 H
b0 `
b0 r
b0 .
b0 m
b0 s
1,
04
b10 A
b10 K
b10 [
b111 >
b111 C
b111 F
b11000 8
b11000 g
b11000 h
b0 I
0J
b1111 n
b111 p
b0 o
b10011 P
b10011 Z
b111 :
b111 G
b111 O
b111 R
b111 v
b11000 2
b11000 Y
b11000 e
b11100000000011110010011 '
b11100000000011110010011 Q
b11100000000011110010011 c
b11000 0
b11000 V
b11000 W
b11011 *
b11011 N
b11011 X
b10100 /
b10100 M
b10100 T
b10100 U
b10100 d
b10100 k
1!
#230000
0!
#235000
b1101000 &
b1101000 q
b1101000 w
b1101000 )
b1101000 ]
b1101000 u
b10000000 %
b10000000 D
b10000000 l
b1101000 =
b1101000 E
b1101000 \
b1101000 _
b1101000 f
b1101000 i
b11100 1
b11100 S
b11100 j
b111 -
b111 H
b111 `
b111 r
b10000000 .
b10000000 m
b10000000 s
0,
14
b0 A
b0 K
b0 [
b11111111111111111111111111101000 >
b11111111111111111111111111101000 C
b11111111111111111111111111101000 F
b11100 8
b11100 g
b11100 h
b10 I
1J
b1000 n
b1111 p
b1000 o
b100011 P
b100011 Z
b11111111111111111111111111101000 :
b11111111111111111111111111101000 G
b11111111111111111111111111101000 O
b11111111111111111111111111101000 R
b11111111111111111111111111101000 v
b11100 2
b11100 Y
b11100 e
b11111110111101000010010000100011 '
b11111110111101000010010000100011 Q
b11111110111101000010010000100011 c
b11100 0
b11100 V
b11100 W
b0 *
b0 N
b0 X
b11000 /
b11000 M
b11000 T
b11000 U
b11000 d
b11000 k
1!
#240000
0!
#245000
b11 &
b11 q
b11 w
b11 )
b11 ]
b11 u
b11 (
b11 ^
b11 a
b1101100 =
b1101100 E
b1101100 \
b1101100 _
b1101100 f
b1101100 i
b100000 1
b100000 S
b100000 j
b0 -
b0 H
b0 `
b0 r
13
1,
15
04
b11111111111111111111111111101100 >
b11111111111111111111111111101100 C
b11111111111111111111111111101100 F
b100000 8
b100000 g
b100000 h
b1110 n
b1100 p
b11 P
b11 Z
b11111111111111111111111111101100 :
b11111111111111111111111111101100 G
b11111111111111111111111111101100 O
b11111111111111111111111111101100 R
b11111111111111111111111111101100 v
b100000 2
b100000 Y
b100000 e
b11111110110001000010011100000011 '
b11111110110001000010011100000011 Q
b11111110110001000010011100000011 c
b100000 0
b100000 V
b100000 W
b1000 *
b1000 N
b1000 X
b11100 /
b11100 M
b11100 T
b11100 U
b11100 d
b11100 k
1!
#250000
0!
#255000
b111 &
b111 q
b111 w
b111 )
b111 ]
b111 u
b111 (
b111 ^
b111 a
b1101000 =
b1101000 E
b1101000 \
b1101000 _
b1101000 f
b1101000 i
b100100 1
b100100 S
b100100 j
b10000000 -
b10000000 H
b10000000 `
b10000000 r
b11111111111111111111111111101000 >
b11111111111111111111111111101000 C
b11111111111111111111111111101000 F
b100100 8
b100100 g
b100100 h
b1111 n
b1000 p
b11111111111111111111111111101000 :
b11111111111111111111111111101000 G
b11111111111111111111111111101000 O
b11111111111111111111111111101000 R
b11111111111111111111111111101000 v
b100100 2
b100100 Y
b100100 e
b11111110100001000010011110000011 '
b11111110100001000010011110000011 Q
b11111110100001000010011110000011 c
b100100 0
b100100 V
b100100 W
b1000 *
b1000 N
b1000 X
b100000 /
b100000 M
b100000 T
b100000 U
b100000 d
b100000 k
1!
#260000
0!
#265000
b1010 &
b1010 q
b1010 w
b11 %
b11 D
b11 l
b1010 )
b1010 ]
b1010 u
b0 (
b0 ^
b0 a
b1010 =
b1010 E
b1010 \
b1010 _
b1010 f
b1010 i
b101000 1
b101000 S
b101000 j
b111 -
b111 H
b111 `
b111 r
b11 .
b11 m
b11 s
0@
03
05
b10 A
b10 K
b10 [
b111 >
b111 C
b111 F
b101000 8
b101000 g
b101000 h
b0 I
0J
b1111 p
b1110 o
b110011 P
b110011 Z
b0 :
b0 G
b0 O
b0 R
b0 v
b101000 2
b101000 Y
b101000 e
b111101110000011110110011 '
b111101110000011110110011 Q
b111101110000011110110011 c
b101000 0
b101000 V
b101000 W
b100100 *
b100100 N
b100100 X
b100100 /
b100100 M
b100100 T
b100100 U
b100100 d
b100100 k
1!
#270000
0!
#275000
b1100100 &
b1100100 q
b1100100 w
b10000000 %
b10000000 D
b10000000 l
b1100100 )
b1100100 ]
b1100100 u
b101100 1
b101100 S
b101100 j
b10000000 .
b10000000 m
b10000000 s
b11111111111111111111111111100100 :
b11111111111111111111111111100100 G
b11111111111111111111111111100100 O
b11111111111111111111111111100100 R
b11111111111111111111111111100100 v
1@
0,
14
b0 A
b0 K
b0 [
b1100100 =
b1100100 E
b1100100 \
b1100100 _
b1100100 f
b1100100 i
b101100 8
b101100 g
b101100 h
b10 I
1J
b100 n
b1000 o
b100011 P
b100011 Z
b11111111111111111111111111100100 >
b11111111111111111111111111100100 C
b11111111111111111111111111100100 F
b101100 2
b101100 Y
b101100 e
b11111110111101000010001000100011 '
b11111110111101000010001000100011 Q
b11111110111101000010001000100011 c
b1010 -
b1010 H
b1010 `
b1010 r
b101100 0
b101100 V
b101100 W
b1100 *
b1100 N
b1100 X
b101000 /
b101000 M
b101000 T
b101000 U
b101000 d
b101000 k
1!
#280000
0!
#285000
b1010 &
b1010 q
b1010 w
b1010 )
b1010 ]
b1010 u
b1010 (
b1010 ^
b1010 a
b1100100 =
b1100100 E
b1100100 \
b1100100 _
b1100100 f
b1100100 i
b110000 1
b110000 S
b110000 j
b0 -
b0 H
b0 `
b0 r
13
1,
15
04
b11111111111111111111111111100100 >
b11111111111111111111111111100100 C
b11111111111111111111111111100100 F
b110000 8
b110000 g
b110000 h
b1111 n
b100 p
b11 P
b11 Z
b11111111111111111111111111100100 :
b11111111111111111111111111100100 G
b11111111111111111111111111100100 O
b11111111111111111111111111100100 R
b11111111111111111111111111100100 v
b110000 2
b110000 Y
b110000 e
b11111110010001000010011110000011 '
b11111110010001000010011110000011 Q
b11111110010001000010011110000011 c
b110000 0
b110000 V
b110000 W
b10000 *
b10000 N
b10000 X
b101100 /
b101100 M
b101100 T
b101100 U
b101100 d
b101100 k
1!
#290000
0!
